model,property,algorithm,control points,exploration ratio,budget,seed,success,tries,min simulations,min time,max simulations,max time,avg simulations,avg time,best robustness
AbstractFuelControl_M1,"□_[11.0, 50.0] ((((throttle < 8.8) && ◇_[0.0, 0.05] (40.0 < throttle)) || ((40.0 < throttle) && ◇_[0.0, 0.05] (throttle < 8.8))) ==> □_[1.0, 5.0] (abs(mu) < 0.008))",adaptive,10 10 10 10 10,0.25,100,0,50,50,1,2,22,51,5,13,-6.09704591941547E-4

